<?xml version="1.0" encoding="utf-8"?>
<!-- Generator: Adobe Illustrator 26.0.1, SVG Export Plug-In . SVG Version: 6.00 Build 0)  -->
<svg version="1.1" id="Слой_1" xmlns="http://www.w3.org/2000/svg" xmlns:xlink="http://www.w3.org/1999/xlink" x="0px" y="0px"
	 viewBox="0 0 284.4 41" style="enable-background:new 0 0 284.4 41;" xml:space="preserve">
<style type="text/css">
	.st0{fill:#C81D21;}
</style>
<g>
	<path class="st0" d="M273.4,35.7c-0.5,0-0.9-0.4-0.9-0.9v0v-9.1c-0.1-0.5,0.3-0.9,0.8-1c0.5-0.1,0.9,0.3,1,0.8c0,0.1,0,0.2,0,0.2
		v9.1C274.3,35.3,273.9,35.7,273.4,35.7C273.4,35.7,273.4,35.7,273.4,35.7z"/>
	<path class="st0" d="M271.1,34.2c-0.2,0-0.5-0.1-0.6-0.3c-0.3-0.4-0.3-0.9,0-1.3l2.3-2.3c0.4-0.3,0.9-0.3,1.3,0
		c0.3,0.4,0.3,0.9,0,1.3l-2.3,2.3C271.6,34.1,271.3,34.2,271.1,34.2z"/>
	<path class="st0" d="M275.7,34.2c-0.2,0-0.5-0.1-0.6-0.3l-2.3-2.3c-0.3-0.4-0.3-0.9,0-1.3c0.4-0.3,0.9-0.3,1.3,0l2.3,2.3
		c0.3,0.4,0.3,0.9,0,1.3C276.1,34.1,275.9,34.2,275.7,34.2z"/>
	<path class="st0" d="M273.4,26.6c-0.5,0-0.9-0.4-0.9-0.9v0v-9.1c-0.1-0.5,0.3-0.9,0.8-1c0.5-0.1,0.9,0.3,1,0.8c0,0.1,0,0.2,0,0.2
		v9.1C274.3,26.2,273.9,26.6,273.4,26.6C273.4,26.6,273.4,26.6,273.4,26.6z"/>
	<path class="st0" d="M273.4,21.4c-0.2,0-0.5-0.1-0.6-0.3c-0.3-0.4-0.3-0.9,0-1.3l2.3-2.3c0.4-0.3,0.9-0.3,1.3,0
		c0.3,0.3,0.3,0.9,0,1.2l-2.3,2.3C273.9,21.3,273.6,21.4,273.4,21.4z"/>
	<path class="st0" d="M273.4,21.4c-0.2,0-0.5-0.1-0.6-0.3l-2.3-2.3c-0.3-0.3-0.3-0.9,0-1.3c0.4-0.3,0.9-0.3,1.3,0l2.3,2.3
		c0.3,0.4,0.3,0.9,0,1.3C273.9,21.3,273.6,21.4,273.4,21.4z"/>
	<path class="st0" d="M265.5,31.2c-0.5,0-0.9-0.4-0.9-0.9c0-0.3,0.2-0.6,0.5-0.8l7.9-4.6c0.4-0.2,1-0.1,1.2,0.3
		c0.2,0.4,0.1,1-0.3,1.2L266,31C265.8,31.1,265.7,31.2,265.5,31.2z"/>
	<path class="st0" d="M268.8,29.3h-0.2l-3.1-0.8c-0.5-0.1-0.8-0.6-0.6-1.1c0.1-0.5,0.6-0.8,1.1-0.6l3.1,0.8c0.5,0.1,0.8,0.6,0.6,1.1
		c0,0,0,0,0,0C269.6,29,269.2,29.3,268.8,29.3z"/>
	<path class="st0" d="M268,32.5h-0.2c-0.5-0.1-0.8-0.6-0.6-1.1l0.8-3.1c0.1-0.5,0.6-0.8,1.1-0.6c0,0,0,0,0,0
		c0.5,0.1,0.8,0.6,0.6,1.1c0,0,0,0,0,0l-0.8,3.1C268.7,32.2,268.4,32.5,268,32.5z"/>
	<path class="st0" d="M273.4,26.6c-0.3,0-0.6-0.2-0.8-0.4c-0.2-0.4-0.1-1,0.3-1.2l7.9-4.6c0.4-0.2,1-0.1,1.2,0.3
		c0.2,0.4,0.1,0.9-0.3,1.2c0,0,0,0,0,0l-7.9,4.6C273.7,26.6,273.5,26.6,273.4,26.6z"/>
	<path class="st0" d="M281.1,24.8c-0.1,0-0.2,0-0.2,0l-3.1-0.8c-0.5-0.1-0.8-0.6-0.6-1.1c0.1-0.5,0.6-0.8,1.1-0.6c0,0,0,0,0,0
		l3.1,0.8c0.5,0.1,0.8,0.6,0.6,1.1C281.8,24.5,281.4,24.8,281.1,24.8z"/>
	<path class="st0" d="M277.9,24h-0.2c-0.5-0.1-0.8-0.6-0.6-1.1l0.8-3.1c0.1-0.5,0.6-0.8,1.1-0.6c0.5,0.1,0.8,0.6,0.6,1.1l-0.8,3.1
		C278.7,23.8,278.3,24,277.9,24z"/>
	<path class="st0" d="M281.3,31.2c-0.2,0-0.3,0-0.5-0.1l-7.9-4.6c-0.4-0.3-0.6-0.8-0.3-1.2c0.3-0.4,0.8-0.6,1.2-0.3l7.9,4.6
		c0.4,0.3,0.6,0.8,0.3,1.2C281.9,31,281.6,31.2,281.3,31.2z"/>
	<path class="st0" d="M278.8,32.5c-0.4,0-0.8-0.3-0.9-0.7l-0.8-3.1c-0.1-0.5,0.1-0.9,0.6-1.1c0,0,0,0,0,0c0.5-0.1,1,0.1,1.1,0.6
		c0,0,0,0,0,0l0.8,3.1c0.1,0.5-0.1,1-0.6,1.1c0,0,0,0,0,0L278.8,32.5z"/>
	<path class="st0" d="M277.9,29.3c-0.4,0-0.8-0.3-0.9-0.7c-0.1-0.5,0.1-0.9,0.6-1.1c0,0,0,0,0,0l3.1-0.8c0.5-0.1,0.9,0.1,1.1,0.6
		c0,0,0,0,0,0c0.1,0.5-0.1,1-0.6,1.1c0,0,0,0,0,0l-3.1,0.8L277.9,29.3z"/>
	<path class="st0" d="M273.4,26.6c-0.2,0-0.3,0-0.4-0.1l-7.9-4.6c-0.4-0.2-0.6-0.8-0.3-1.2c0.2-0.4,0.8-0.6,1.2-0.3l7.9,4.6
		c0.4,0.3,0.6,0.8,0.3,1.2C274,26.5,273.7,26.6,273.4,26.6z"/>
	<path class="st0" d="M268.8,24c-0.4,0-0.8-0.3-0.9-0.7l-0.8-3.1c-0.1-0.5,0.2-1,0.6-1.1c0.5-0.1,1,0.2,1.1,0.6l0,0l0.8,3.1
		c0.1,0.5-0.2,1-0.6,1.1L268.8,24z"/>
	<path class="st0" d="M265.7,24.8c-0.4,0-0.8-0.3-0.9-0.7c-0.1-0.5,0.2-1,0.6-1.1l3.1-0.8c0.5-0.1,1,0.2,1.1,0.6
		c0.1,0.5-0.2,1-0.6,1.1l-3,0.9C265.9,24.8,265.8,24.8,265.7,24.8z"/>
	<path class="st0" d="M242.2,39.8c-0.2,0-0.4-0.2-0.4-0.4c0,0,0,0,0,0V35c0-0.2,0.2-0.4,0.4-0.4c0,0,0,0,0,0c0.2,0,0.4,0.2,0.4,0.4
		v4.4C242.6,39.6,242.5,39.8,242.2,39.8z"/>
	<path class="st0" d="M241.1,39c-0.1,0-0.2,0-0.3-0.1c-0.2-0.2-0.2-0.4,0-0.6c0,0,0,0,0,0l1.1-1.1c0.2-0.2,0.4-0.2,0.6,0
		c0.2,0.2,0.2,0.4,0,0.6l0,0l-1.1,1.1C241.3,39,241.2,39,241.1,39z"/>
	<path class="st0" d="M243.3,39c-0.1,0-0.2,0-0.3-0.1l-1.1-1.1c-0.2-0.2-0.2-0.4,0-0.6c0.2-0.2,0.4-0.2,0.6,0l1.1,1.1
		c0.2,0.2,0.2,0.4,0,0.6c0,0,0,0,0,0C243.5,39,243.4,39,243.3,39z"/>
	<path class="st0" d="M242.2,35.4c-0.2,0-0.4-0.2-0.4-0.4c0,0,0,0,0,0v-4.4c0-0.2,0.2-0.4,0.4-0.4c0.2,0,0.4,0.2,0.4,0.4V35
		C242.6,35.2,242.5,35.4,242.2,35.4z"/>
	<path class="st0" d="M242.2,32.9c-0.1,0-0.2-0.1-0.3-0.1c-0.2-0.2-0.2-0.4,0-0.6c0,0,0,0,0,0L243,31c0.2-0.2,0.4-0.2,0.6,0
		c0.2,0.2,0.2,0.4,0,0.6l-1.1,1.1C242.4,32.8,242.3,32.9,242.2,32.9z"/>
	<path class="st0" d="M242.2,32.9c-0.1,0-0.2-0.1-0.3-0.1l-1.1-1.1c-0.2-0.2-0.2-0.4,0-0.6c0.2-0.2,0.4-0.2,0.6,0l1.1,1.1
		c0.2,0.2,0.2,0.4,0,0.6c0,0,0,0,0,0C242.4,32.8,242.3,32.9,242.2,32.9z"/>
	<path class="st0" d="M238.5,37.6c-0.2,0-0.3-0.1-0.4-0.2c-0.1-0.2,0-0.5,0.2-0.6l3.8-2.2c0.2-0.1,0.4-0.1,0.6,0.1c0,0,0,0,0,0
		c0.1,0.2,0,0.5-0.2,0.6l-3.8,2.2C238.6,37.6,238.6,37.6,238.5,37.6z"/>
	<path class="st0" d="M240,36.7h-0.1l-1.5-0.4c-0.2-0.1-0.4-0.3-0.3-0.5c0.1-0.2,0.3-0.4,0.5-0.3l1.5,0.4c0.2,0.1,0.3,0.3,0.3,0.6
		C240.3,36.6,240.2,36.7,240,36.7L240,36.7z"/>
	<path class="st0" d="M239.6,38.2h-0.1c-0.2-0.1-0.4-0.3-0.3-0.5l0.4-1.5c0.1-0.2,0.4-0.3,0.6-0.2c0.2,0.1,0.3,0.3,0.2,0.4l-0.4,1.5
		C240,38.1,239.8,38.2,239.6,38.2z"/>
	<path class="st0" d="M242.2,35.4c-0.2,0-0.3-0.1-0.4-0.2c-0.1-0.2,0-0.5,0.2-0.6l3.8-2.2c0.2-0.1,0.5,0,0.6,0.2
		c0.1,0.2,0,0.5-0.2,0.6l0,0l-3.8,2.2C242.4,35.4,242.3,35.4,242.2,35.4z"/>
	<path class="st0" d="M245.9,34.5h-0.1l-1.5-0.4c-0.2,0-0.4-0.3-0.4-0.5c0-0.2,0.3-0.4,0.5-0.4c0,0,0,0,0.1,0l1.5,0.4
		c0.2,0.1,0.4,0.3,0.3,0.5C246.3,34.4,246.1,34.5,245.9,34.5z"/>
	<path class="st0" d="M244.4,34.1h-0.1c-0.2-0.1-0.4-0.3-0.3-0.5l0.4-1.5c0.1-0.2,0.4-0.3,0.6-0.2c0.2,0.1,0.3,0.3,0.2,0.4l-0.4,1.5
		C244.8,34,244.6,34.1,244.4,34.1z"/>
	<path class="st0" d="M246,37.6c-0.1,0-0.1,0-0.2,0l-3.8-2.2c-0.2-0.1-0.3-0.3-0.2-0.6c0.1-0.2,0.3-0.3,0.6-0.2c0,0,0.1,0,0.1,0.1
		l3.8,2.2c0.2,0.1,0.3,0.4,0.1,0.6C246.3,37.6,246.2,37.6,246,37.6L246,37.6z"/>
	<path class="st0" d="M244.8,38.2c-0.2,0-0.4-0.1-0.4-0.3l-0.4-1.5c-0.1-0.2,0.1-0.5,0.3-0.5c0.2-0.1,0.5,0.1,0.5,0.3l0.4,1.5
		c0.1,0.2-0.1,0.5-0.3,0.5L244.8,38.2z"/>
	<path class="st0" d="M244.4,36.7c-0.2,0-0.4-0.1-0.4-0.3c-0.1-0.2,0.1-0.5,0.3-0.5l1.5-0.4c0.2-0.1,0.5,0.1,0.5,0.3
		c0.1,0.2-0.1,0.5-0.3,0.5l-1.5,0.4L244.4,36.7z"/>
	<path class="st0" d="M242.2,35.4c-0.1,0-0.1,0-0.2,0l-3.8-2.2c-0.2-0.1-0.3-0.4-0.2-0.6c0.1-0.2,0.4-0.3,0.6-0.2l3.8,2.2
		c0.2,0.1,0.3,0.4,0.2,0.6C242.5,35.4,242.4,35.4,242.2,35.4z"/>
	<path class="st0" d="M240,34.1c-0.2,0-0.4-0.1-0.4-0.3l-0.4-1.5c-0.1-0.2,0.1-0.5,0.3-0.5c0.2-0.1,0.5,0.1,0.5,0.3l0.4,1.5
		c0.1,0.2-0.1,0.5-0.3,0.5L240,34.1z"/>
	<path class="st0" d="M238.5,34.5c-0.2,0-0.4-0.1-0.4-0.3c-0.1-0.2,0.1-0.5,0.3-0.5l1.5-0.4c0.2-0.1,0.5,0.1,0.5,0.3
		c0.1,0.2-0.1,0.5-0.3,0.5l-1.5,0.4L238.5,34.5z"/>
	<path class="st0" d="M256.3,11.9c-0.3,0-0.5-0.2-0.5-0.5v-5c0-0.3,0.2-0.5,0.5-0.5c0.3,0,0.5,0.2,0.5,0.5v4.9
		c0,0.3-0.1,0.5-0.4,0.5C256.4,11.9,256.4,11.9,256.3,11.9z"/>
	<path class="st0" d="M255.1,11.1c-0.1,0-0.3-0.1-0.4-0.2c-0.2-0.2-0.2-0.5,0-0.7c0,0,0,0,0,0L256,9c0.2-0.2,0.5-0.2,0.7-0.1
		c0.2,0.2,0.2,0.5,0.1,0.7c0,0,0,0.1-0.1,0.1l-1.2,1.2C255.4,11,255.2,11.1,255.1,11.1z"/>
	<path class="st0" d="M257.6,11.1c-0.1,0-0.3-0.1-0.3-0.2L256,9.7c-0.2-0.2-0.2-0.5-0.1-0.7c0.2-0.2,0.5-0.2,0.7-0.1
		c0,0,0.1,0,0.1,0.1l1.2,1.2c0.2,0.2,0.2,0.5,0,0.7c0,0,0,0,0,0C257.8,11,257.7,11.1,257.6,11.1z"/>
	<path class="st0" d="M256.3,7c-0.3,0-0.5-0.2-0.5-0.5V1.6c0-0.3,0.3-0.4,0.6-0.4c0.2,0,0.4,0.2,0.4,0.4v4.8
		C256.9,6.7,256.7,7,256.3,7C256.4,7,256.4,7,256.3,7z"/>
	<path class="st0" d="M256.3,4.2c-0.1,0-0.3-0.1-0.3-0.2c-0.2-0.2-0.2-0.5,0-0.7c0,0,0,0,0,0l1.2-1.2c0.2-0.2,0.5-0.2,0.7,0
		c0,0,0,0,0,0c0.2,0.2,0.2,0.5,0,0.7L256.7,4C256.6,4.1,256.5,4.2,256.3,4.2z"/>
	<path class="st0" d="M256.3,4.2c-0.1,0-0.3-0.1-0.3-0.2l-1.2-1.2c-0.2-0.2-0.1-0.5,0.1-0.7c0.2-0.1,0.4-0.1,0.6,0l1.2,1.2
		c0.2,0.2,0.2,0.5,0,0.7c0,0,0,0,0,0C256.6,4.1,256.5,4.2,256.3,4.2z"/>
	<path class="st0" d="M252.1,9.5c-0.3,0-0.5-0.2-0.5-0.5c0-0.2,0.1-0.3,0.2-0.4l4.2-2.4c0.2-0.1,0.5-0.1,0.7,0.2c0,0,0,0,0,0
		c0.1,0.2,0,0.5-0.2,0.7l-4.2,2.4C252.3,9.5,252.2,9.5,252.1,9.5z"/>
	<path class="st0" d="M253.9,8.4L253.9,8.4L252.1,8c-0.2-0.1-0.4-0.3-0.3-0.5c0,0,0,0,0,0c0.1-0.3,0.3-0.4,0.6-0.4c0,0,0,0,0,0
		l1.7,0.5c0.3,0,0.4,0.3,0.4,0.5C254.4,8.3,254.2,8.5,253.9,8.4L253.9,8.4L253.9,8.4z"/>
	<path class="st0" d="M253.4,10.1h-0.1c-0.3-0.1-0.4-0.3-0.4-0.6l0.5-1.7c0.1-0.2,0.3-0.4,0.5-0.3c0,0,0,0,0,0
		c0.3,0.1,0.4,0.3,0.4,0.6l-0.5,1.7C253.8,10,253.7,10.1,253.4,10.1z"/>
	<path class="st0" d="M256.3,7c-0.3,0-0.5-0.2-0.5-0.5c0-0.2,0.1-0.3,0.2-0.4l4.2-2.4c0.2-0.1,0.5-0.1,0.7,0.2
		c0.1,0.2,0.1,0.5-0.2,0.7l0,0l-4.2,2.4C256.5,7,256.4,7,256.3,7z"/>
	<path class="st0" d="M260.5,6.1h-0.1l-1.7-0.4c-0.2-0.1-0.4-0.4-0.2-0.6c0.1-0.2,0.3-0.3,0.5-0.3l1.7,0.5c0.3,0.1,0.4,0.3,0.4,0.6
		c0,0,0,0,0,0C260.9,5.9,260.7,6.1,260.5,6.1z"/>
	<path class="st0" d="M258.8,5.6h-0.1c-0.2-0.1-0.4-0.4-0.3-0.6c0,0,0,0,0-0.1l0.4-1.7c0.1-0.3,0.3-0.4,0.6-0.3
		c0.3,0.1,0.4,0.3,0.3,0.6c0,0,0,0,0,0l-0.4,1.7C259.3,5.4,259,5.6,258.8,5.6z"/>
	<path class="st0" d="M260.6,9.5c-0.1,0-0.2,0-0.2,0l-4.2-2.4c-0.2-0.1-0.3-0.4-0.2-0.6c0,0,0,0,0,0c0.1-0.2,0.4-0.3,0.6-0.2
		c0,0,0,0,0,0l4.2,2.4c0.2,0.1,0.3,0.4,0.2,0.6C260.9,9.5,260.7,9.6,260.6,9.5L260.6,9.5z"/>
	<path class="st0" d="M259.2,10.1c-0.2,0-0.4-0.1-0.5-0.4L258.4,8c-0.1-0.2,0.1-0.5,0.3-0.6c0,0,0,0,0,0c0.3-0.1,0.5,0.1,0.6,0.3
		c0,0,0,0,0,0l0.4,1.7c0.1,0.3-0.1,0.5-0.3,0.6c0,0,0,0,0,0L259.2,10.1z"/>
	<path class="st0" d="M258.8,8.4c-0.2,0-0.4-0.2-0.4-0.4c-0.1-0.2,0.1-0.5,0.3-0.6c0,0,0,0,0,0l1.7-0.5c0.3-0.1,0.5,0.1,0.6,0.4
		c0.1,0.3-0.1,0.5-0.4,0.6L259,8.3L258.8,8.4z"/>
	<path class="st0" d="M256.3,7c-0.1,0-0.2,0-0.2,0l-4.2-2.4c-0.2-0.1-0.3-0.4-0.2-0.6c0,0,0,0,0,0c0.1-0.2,0.4-0.3,0.6-0.2
		c0,0,0,0,0,0l4.2,2.4c0.2,0.1,0.3,0.4,0.2,0.6C256.7,7,256.5,7.1,256.3,7L256.3,7z"/>
	<path class="st0" d="M253.9,5.6c-0.2,0-0.4-0.1-0.5-0.4L253,3.6c-0.1-0.3,0.1-0.5,0.4-0.6c0.3-0.1,0.5,0.1,0.6,0.3c0,0,0,0,0,0
		l0.5,1.7c0.1,0.3-0.1,0.5-0.4,0.6L253.9,5.6z"/>
	<path class="st0" d="M252.3,6.1c-0.2,0-0.4-0.2-0.5-0.4c-0.1-0.2,0.1-0.5,0.3-0.6c0,0,0,0,0,0l1.7-0.5c0.2-0.1,0.5,0,0.6,0.2
		c0.1,0.2,0,0.5-0.2,0.6c-0.1,0-0.1,0-0.2,0L252.4,6L252.3,6.1z"/>
	<path class="st0" d="M121.2,39.8c-0.2,0-0.4-0.2-0.4-0.4v-4.1c0-0.2,0.3-0.4,0.5-0.3c0.2,0,0.3,0.2,0.3,0.3v4.1
		C121.6,39.6,121.4,39.8,121.2,39.8z"/>
	<path class="st0" d="M120.1,39.1c-0.1,0-0.2,0-0.3-0.1c-0.1-0.2-0.1-0.4,0-0.6l1-1c0.2-0.1,0.4-0.1,0.6,0c0.2,0.1,0.2,0.4,0,0.5
		c0,0,0,0,0,0l-1,1C120.4,39,120.3,39.1,120.1,39.1z"/>
	<path class="st0" d="M122.2,39.1c-0.1,0-0.2,0-0.3-0.1l-1-1c-0.2-0.2-0.2-0.4,0-0.6c0.2-0.2,0.4-0.2,0.6,0l1,1
		c0.2,0.1,0.2,0.4,0,0.5c0,0,0,0,0,0C122.4,39,122.3,39.1,122.2,39.1z"/>
	<path class="st0" d="M121.2,35.7c-0.2,0-0.4-0.2-0.4-0.4v-4.1c0-0.2,0.1-0.4,0.3-0.5c0.2,0,0.4,0.1,0.5,0.3c0,0.1,0,0.1,0,0.2v4.1
		C121.6,35.5,121.4,35.7,121.2,35.7z"/>
	<path class="st0" d="M121.2,33.4c-0.1,0-0.2,0-0.3-0.1c-0.1-0.2-0.1-0.4,0-0.6l1-1c0.2-0.2,0.4-0.2,0.6,0c0.2,0.2,0.2,0.4,0,0.6
		l-1,1C121.4,33.3,121.3,33.4,121.2,33.4z"/>
	<path class="st0" d="M121.2,33.4c-0.1,0-0.2,0-0.3-0.1l-1-1c-0.1-0.2-0.1-0.4,0-0.6c0.1-0.2,0.4-0.2,0.5,0c0,0,0,0,0,0l1,1
		c0.2,0.1,0.2,0.4,0,0.5c0,0,0,0,0,0C121.4,33.3,121.3,33.4,121.2,33.4z"/>
	<path class="st0" d="M117.7,37.7c-0.1,0-0.3-0.1-0.4-0.2c-0.1-0.2,0-0.4,0.1-0.6l3.5-2c0.2-0.1,0.4-0.1,0.5,0.1c0,0,0,0,0,0
		c0.1,0.2,0.1,0.4-0.1,0.5c0,0,0,0,0,0l-3.5,2C117.9,37.7,117.8,37.7,117.7,37.7z"/>
	<path class="st0" d="M119.1,36.9H119l-1.4-0.4c-0.2,0-0.4-0.2-0.3-0.4c0-0.2,0.2-0.4,0.4-0.3c0,0,0.1,0,0.1,0l1.4,0.4
		c0.2,0.1,0.3,0.3,0.3,0.5C119.5,36.8,119.3,36.9,119.1,36.9z"/>
	<path class="st0" d="M118.8,38.3h-0.1c-0.2-0.1-0.3-0.3-0.3-0.5c0,0,0,0,0,0l0.4-1.4c0.1-0.2,0.3-0.3,0.5-0.3c0,0,0,0,0,0
		c0.2,0.1,0.3,0.3,0.3,0.5l-0.4,1.4C119.1,38.2,118.9,38.3,118.8,38.3z"/>
	<path class="st0" d="M121.2,35.7c-0.2,0-0.3-0.1-0.4-0.2c-0.1-0.2,0-0.4,0.1-0.5c0,0,0,0,0,0l3.5-2c0.2-0.1,0.4,0,0.6,0.2
		c0.1,0.2,0,0.4-0.2,0.6l-3.5,2C121.3,35.7,121.2,35.7,121.2,35.7z"/>
	<path class="st0" d="M124.6,34.9h-0.1l-1.4-0.4c-0.2-0.1-0.3-0.3-0.3-0.5c0.1-0.2,0.3-0.3,0.5-0.3l0,0l1.4,0.4
		c0.2,0,0.3,0.3,0.3,0.5c0,0,0,0,0,0C125,34.8,124.8,34.9,124.6,34.9z"/>
	<path class="st0" d="M123.2,34.5h-0.1c-0.2-0.1-0.3-0.3-0.3-0.5l0.4-1.4c0.1-0.2,0.3-0.3,0.5-0.3c0.2,0.1,0.3,0.3,0.3,0.5l-0.4,1.4
		C123.6,34.4,123.4,34.5,123.2,34.5z"/>
	<path class="st0" d="M124.7,37.7c-0.1,0-0.1,0-0.2,0l-3.5-2c-0.2-0.1-0.3-0.3-0.2-0.5c0,0,0,0,0,0c0.1-0.2,0.4-0.3,0.5-0.1
		c0,0,0,0,0,0l3.5,2c0.2,0.1,0.3,0.3,0.2,0.5c0,0,0,0,0,0C125,37.7,124.8,37.8,124.7,37.7z"/>
	<path class="st0" d="M123.6,38.3c-0.2,0-0.3-0.1-0.4-0.3l-0.4-1.4c-0.1-0.2,0.1-0.4,0.3-0.5c0.2-0.1,0.4,0.1,0.5,0.3l0.4,1.4
		c0.1,0.2-0.1,0.4-0.3,0.5L123.6,38.3z"/>
	<path class="st0" d="M123.2,36.9c-0.2,0-0.3-0.1-0.4-0.3c-0.1-0.2,0.1-0.4,0.3-0.5l1.4-0.4c0.2,0,0.4,0.1,0.5,0.3
		c0,0.2-0.1,0.4-0.3,0.5l-1.4,0.4L123.2,36.9z"/>
	<path class="st0" d="M121.2,35.7c-0.1,0-0.1,0-0.2,0l-3.5-2c-0.2-0.1-0.2-0.4-0.1-0.6c0.1-0.2,0.3-0.3,0.5-0.2c0,0,0,0,0,0l3.5,2
		c0.2,0.1,0.3,0.4,0.1,0.5c0,0,0,0,0,0C121.4,35.7,121.3,35.7,121.2,35.7z"/>
	<path class="st0" d="M119.1,34.5c-0.2,0-0.3-0.1-0.4-0.3l-0.4-1.4c-0.1-0.2,0.1-0.4,0.3-0.5s0.4,0.1,0.5,0.3l0.4,1.4
		c0,0.2-0.1,0.4-0.3,0.5L119.1,34.5z"/>
	<path class="st0" d="M117.7,34.9c-0.2,0-0.3-0.1-0.4-0.3c-0.1-0.2,0.1-0.4,0.3-0.5c0,0,0,0,0,0l1.4-0.4c0.2-0.1,0.4,0.1,0.5,0.3
		c0.1,0.2-0.1,0.4-0.3,0.5l-1.4,0.4L117.7,34.9z"/>
	<path class="st0" d="M25.2,39.8c-0.2,0-0.4-0.2-0.4-0.4V35c0-0.2,0.2-0.4,0.4-0.4c0,0,0,0,0,0c0.2,0,0.4,0.2,0.4,0.4c0,0,0,0,0,0
		v4.4C25.6,39.6,25.4,39.8,25.2,39.8C25.2,39.8,25.2,39.8,25.2,39.8z"/>
	<path class="st0" d="M24.1,39c-0.1,0-0.2,0-0.3-0.1c-0.2-0.2-0.2-0.4,0-0.6c0,0,0,0,0,0l1.1-1.1c0.2-0.2,0.4-0.2,0.6,0
		s0.2,0.4,0,0.6l-1.1,1.1C24.3,39,24.2,39,24.1,39z"/>
	<path class="st0" d="M26.3,39c-0.1,0-0.2,0-0.3-0.1l-1.1-1.1c-0.2-0.2-0.2-0.4,0-0.6s0.4-0.2,0.6,0l1.1,1.1c0.2,0.2,0.2,0.4,0,0.6
		c0,0,0,0,0,0C26.5,39,26.4,39,26.3,39z"/>
	<path class="st0" d="M25.2,35.4c-0.2,0-0.4-0.2-0.4-0.4c0,0,0,0,0,0v-4.4c0-0.2,0.2-0.4,0.4-0.4c0.2,0,0.4,0.2,0.4,0.4c0,0,0,0,0,0
		V35C25.6,35.2,25.4,35.4,25.2,35.4C25.2,35.4,25.2,35.4,25.2,35.4z"/>
	<path class="st0" d="M25.2,32.9c-0.1,0-0.2-0.1-0.3-0.1c-0.2-0.2-0.2-0.4,0-0.6c0,0,0,0,0,0L26,31c0.2-0.2,0.4-0.2,0.6,0
		c0.2,0.2,0.2,0.4,0,0.6l-1.1,1.1C25.4,32.8,25.3,32.9,25.2,32.9z"/>
	<path class="st0" d="M25.2,32.9c-0.1,0-0.2-0.1-0.3-0.1l-1.1-1.1c-0.2-0.2-0.2-0.4,0-0.6c0.2-0.2,0.4-0.2,0.6,0l1.1,1.1
		c0.2,0.2,0.2,0.4,0,0.6c0,0,0,0,0,0C25.4,32.8,25.3,32.9,25.2,32.9z"/>
	<path class="st0" d="M21.4,37.6c-0.2,0-0.4-0.2-0.4-0.4c0-0.1,0.1-0.3,0.2-0.4l3.8-2.2c0.2-0.1,0.5-0.1,0.6,0.1
		c0.1,0.2,0.1,0.5-0.1,0.6c0,0-0.1,0-0.1,0.1l-3.8,2.2C21.6,37.6,21.5,37.6,21.4,37.6z"/>
	<path class="st0" d="M22.9,36.7L22.9,36.7l-1.5-0.4c-0.2-0.1-0.4-0.3-0.3-0.5c0.1-0.2,0.3-0.4,0.5-0.3c0,0,0,0,0,0l1.5,0.4
		c0.2,0.1,0.4,0.3,0.3,0.5C23.4,36.6,23.2,36.7,22.9,36.7C23,36.7,22.9,36.7,22.9,36.7z"/>
	<path class="st0" d="M22.6,38.2h-0.1c-0.2-0.1-0.4-0.3-0.3-0.5l0.4-1.5c0.1-0.2,0.3-0.4,0.5-0.3c0.2,0.1,0.4,0.3,0.3,0.5L23,37.9
		C23,38.1,22.8,38.2,22.6,38.2z"/>
	<path class="st0" d="M25.2,35.4c-0.2,0-0.3-0.1-0.4-0.2c-0.1-0.2,0-0.5,0.2-0.6l3.8-2.2c0.2-0.1,0.5,0,0.6,0.2
		c0.1,0.2,0,0.5-0.2,0.6l-3.8,2.2C25.3,35.4,25.3,35.4,25.2,35.4z"/>
	<path class="st0" d="M28.9,34.5h-0.1l-1.5-0.4c-0.2-0.1-0.4-0.3-0.3-0.5c0.1-0.2,0.3-0.4,0.5-0.3l1.5,0.4c0.2,0.1,0.4,0.3,0.3,0.5
		C29.3,34.4,29.1,34.6,28.9,34.5z"/>
	<path class="st0" d="M27.4,34.1h-0.1c-0.2-0.1-0.4-0.3-0.3-0.5l0.4-1.5c0.1-0.2,0.3-0.4,0.5-0.3c0.2,0.1,0.4,0.3,0.3,0.5l-0.4,1.5
		C27.7,34,27.6,34.1,27.4,34.1z"/>
	<path class="st0" d="M29.1,37.6c-0.1,0-0.1,0-0.2,0l-3.8-2.2c-0.2-0.1-0.3-0.4-0.2-0.6c0.1-0.2,0.4-0.3,0.6-0.2c0,0,0,0,0,0
		l3.8,2.2c0.2,0.1,0.3,0.4,0.2,0.6C29.3,37.5,29.2,37.6,29.1,37.6z"/>
	<path class="st0" d="M27.8,38.2c-0.2,0-0.4-0.1-0.4-0.3L27,36.3c0-0.2,0.2-0.5,0.4-0.5c0.2,0,0.4,0.1,0.4,0.2l0.4,1.5
		c0.1,0.2-0.1,0.5-0.3,0.5L27.8,38.2z"/>
	<path class="st0" d="M27.4,36.7c-0.2,0-0.4-0.1-0.4-0.3c-0.1-0.2,0.1-0.5,0.3-0.5l1.5-0.4c0.2-0.1,0.5,0.1,0.5,0.3
		c0.1,0.2-0.1,0.5-0.3,0.5l-1.5,0.4L27.4,36.7z"/>
	<path class="st0" d="M25.2,35.4c-0.1,0-0.1,0-0.2,0l-3.8-2.2c-0.2-0.1-0.3-0.4-0.2-0.6c0.1-0.2,0.4-0.3,0.6-0.2l3.8,2.2
		c0.2,0.1,0.3,0.4,0.2,0.6C25.5,35.4,25.3,35.4,25.2,35.4z"/>
	<path class="st0" d="M22.9,34.1c-0.2,0-0.4-0.1-0.4-0.3l-0.4-1.5c-0.1-0.2,0-0.5,0.2-0.6c0.2-0.1,0.5,0,0.6,0.2c0,0,0,0.1,0,0.2
		l0.4,1.5c0.1,0.2-0.1,0.5-0.3,0.5L22.9,34.1z"/>
	<path class="st0" d="M21.5,34.5c-0.2,0-0.4-0.1-0.4-0.3c-0.1-0.2,0.1-0.5,0.3-0.5l1.5-0.4c0.2-0.1,0.5,0.1,0.5,0.3c0,0,0,0,0,0
		c0.1,0.2-0.1,0.5-0.3,0.5l-1.5,0.4L21.5,34.5z"/>
	<path class="st0" d="M65.3,11.5c-0.2,0-0.3-0.2-0.3-0.3c0,0,0,0,0,0V7.7c0-0.2,0.1-0.3,0.3-0.3c0.2,0,0.3,0.1,0.3,0.3c0,0,0,0,0,0
		v3.4C65.7,11.3,65.5,11.5,65.3,11.5z"/>
	<path class="st0" d="M64.5,10.9c-0.1,0-0.2,0-0.2-0.1c-0.1-0.1-0.1-0.3,0-0.5c0,0,0,0,0,0l0.9-0.8c0.1-0.1,0.3-0.1,0.5,0
		c0,0,0,0,0,0c0.1,0.1,0.1,0.3,0,0.5l-0.9,0.9C64.6,10.9,64.5,10.9,64.5,10.9z"/>
	<path class="st0" d="M66.2,10.9c-0.1,0-0.2,0-0.2-0.1l-0.9-0.9c-0.1-0.1-0.1-0.3,0-0.5c0.1-0.1,0.3-0.1,0.5,0c0,0,0,0,0,0l0.9,0.9
		c0.1,0.1,0.1,0.3,0,0.5c0,0,0,0,0,0C66.4,10.9,66.3,10.9,66.2,10.9z"/>
	<path class="st0" d="M65.3,8C65.1,8,65,7.8,65,7.7c0,0,0,0,0,0V4.3C65,4.1,65.1,4,65.3,4c0.2,0,0.3,0.1,0.3,0.3c0,0,0,0,0,0v3.4
		C65.6,7.9,65.5,8,65.3,8z"/>
	<path class="st0" d="M65.3,6.1c-0.1,0-0.2,0-0.2-0.1c-0.1-0.1-0.1-0.3,0-0.5l0.9-0.9c0.1-0.1,0.4-0.1,0.5,0c0.1,0.1,0.1,0.3,0,0.4
		L65.6,6C65.5,6,65.4,6.1,65.3,6.1z"/>
	<path class="st0" d="M65.3,6.1c-0.1,0-0.2,0-0.2-0.1l-0.9-0.9c-0.1-0.1-0.2-0.3,0-0.5c0.1-0.1,0.3-0.2,0.5,0c0,0,0,0,0,0l0.9,0.9
		c0.1,0.1,0.1,0.3,0,0.5C65.5,6,65.4,6.1,65.3,6.1z"/>
	<path class="st0" d="M62.4,9.8c-0.1,0-0.2-0.1-0.3-0.2c-0.1-0.2,0-0.4,0.1-0.5l3-1.7c0.2-0.1,0.4,0,0.5,0.1
		c0.1,0.1,0.1,0.3-0.1,0.4c0,0,0,0,0,0l-3,1.7C62.5,9.8,62.4,9.8,62.4,9.8z"/>
	<path class="st0" d="M63.6,9L63.6,9l-1.3-0.3c-0.2-0.1-0.3-0.2-0.2-0.4c0-0.2,0.2-0.3,0.4-0.2c0,0,0,0,0,0l1.2,0.3
		c0.2,0.1,0.3,0.2,0.2,0.4C63.9,9,63.8,9.1,63.6,9z"/>
	<path class="st0" d="M63.3,10.2L63.3,10.2c-0.2,0-0.3-0.2-0.2-0.4c0,0,0,0,0,0l0.3-1.2c0-0.2,0.2-0.3,0.4-0.2c0,0,0,0,0,0
		C64,8.5,64.1,8.6,64,8.8L63.7,10C63.6,10.2,63.5,10.3,63.3,10.2z"/>
	<path class="st0" d="M65.3,8c-0.1,0-0.2-0.1-0.3-0.2c-0.1-0.2,0-0.4,0.1-0.5l3-1.7c0.2-0.1,0.4,0,0.5,0.1c0.1,0.1,0.1,0.3-0.1,0.4
		c0,0,0,0,0,0l-3,1.8C65.4,8,65.4,8,65.3,8z"/>
	<path class="st0" d="M68.2,7.4L68.2,7.4L67,7.1c-0.2-0.1-0.2-0.3-0.1-0.5c0-0.1,0.1-0.1,0.2-0.1l1.2,0.3c0.2,0,0.3,0.2,0.2,0.4
		c0,0,0,0,0,0C68.5,7.3,68.3,7.4,68.2,7.4z"/>
	<path class="st0" d="M67,7.1L67,7.1c-0.3-0.1-0.4-0.2-0.3-0.4L67,5.5c0-0.2,0.2-0.3,0.4-0.3c0.2,0,0.3,0.2,0.3,0.4c0,0,0,0.1,0,0.1
		l-0.3,1.2C67.3,7,67.2,7.1,67,7.1z"/>
	<path class="st0" d="M68.3,9.8c-0.1,0-0.1,0-0.2,0l-3-1.8C65,7.9,64.9,7.7,65,7.6c0,0,0,0,0,0c0.1-0.2,0.3-0.2,0.5-0.1l3,1.7
		c0.2,0.1,0.2,0.3,0.1,0.5C68.5,9.7,68.4,9.8,68.3,9.8z"/>
	<path class="st0" d="M67.4,10.2c-0.2,0-0.3-0.1-0.3-0.2l-0.3-1.2c0-0.2,0.1-0.4,0.2-0.4c0.2-0.1,0.3,0,0.4,0.2c0,0,0,0,0,0l0.3,1.2
		C67.7,10,67.6,10.2,67.4,10.2L67.4,10.2z"/>
	<path class="st0" d="M67,9c-0.2,0-0.3-0.1-0.3-0.2c0-0.2,0.1-0.4,0.2-0.4l1.2-0.3c0.2,0,0.4,0.1,0.4,0.2c0,0.2-0.1,0.4-0.2,0.4
		L67,9L67,9z"/>
	<path class="st0" d="M65.3,8c-0.1,0-0.1,0-0.2,0l-3-1.7C62,6.2,62,6,62,5.9c0,0,0,0,0,0c0.1-0.2,0.3-0.2,0.5-0.1l3,1.7
		c0.2,0.1,0.2,0.3,0.1,0.5C65.5,8,65.4,8,65.3,8z"/>
	<path class="st0" d="M63.6,7.1c-0.2,0-0.3-0.1-0.3-0.3L63,5.6c0-0.2,0.1-0.4,0.2-0.4c0,0,0,0,0,0c0.2,0,0.4,0.1,0.4,0.2l0.3,1.2
		C64,6.8,63.9,7,63.6,7.1L63.6,7.1z"/>
	<path class="st0" d="M62.4,7.4c-0.2,0-0.3-0.1-0.3-0.2c-0.1-0.2,0-0.3,0.2-0.4c0,0,0,0,0,0l1.2-0.3c0.2-0.1,0.4,0.1,0.4,0.2
		c0.1,0.2-0.1,0.4-0.2,0.4L62.4,7.4L62.4,7.4z"/>
	<path class="st0" d="M10.7,24.8c-0.5,0-0.9-0.4-0.9-0.9v-8.7c0-0.5,0.4-0.9,0.9-0.9c0.5,0,0.9,0.4,0.9,0.9c0,0,0,0,0,0V24
		C11.6,24.4,11.2,24.8,10.7,24.8z"/>
	<path class="st0" d="M8.4,23.3c-0.2,0-0.4-0.1-0.6-0.3c-0.3-0.3-0.3-0.9,0-1.2l2.2-2.2c0.4-0.3,0.9-0.2,1.2,0.2
		c0.2,0.3,0.2,0.8,0,1.1L9.1,23C8.9,23.2,8.7,23.3,8.4,23.3z"/>
	<path class="st0" d="M12.9,23.3c-0.2,0-0.4-0.1-0.6-0.3l-2.2-2.2c-0.4-0.3-0.4-0.8-0.2-1.2c0.3-0.4,0.8-0.4,1.2-0.2
		c0.1,0,0.1,0.1,0.2,0.2l2.2,2.2c0.4,0.3,0.4,0.9,0.1,1.2C13.4,23.2,13.1,23.4,12.9,23.3L12.9,23.3z"/>
	<path class="st0" d="M10.7,16c-0.5,0-0.9-0.4-0.9-0.9V6.5c0-0.5,0.4-0.9,0.8-0.9c0,0,0,0,0,0c0.5,0,0.9,0.4,0.9,0.9v0v8.8
		C11.6,15.7,11.2,16,10.7,16L10.7,16z"/>
	<path class="st0" d="M10.7,11.1c-0.2,0-0.5-0.1-0.6-0.3c-0.3-0.3-0.3-0.9,0-1.2l2.1-2.3c0.3-0.4,0.8-0.4,1.2-0.2
		c0.4,0.3,0.4,0.8,0.2,1.2c0,0.1-0.1,0.1-0.2,0.2l-2.2,2.2C11.1,10.9,10.9,11,10.7,11.1z"/>
	<path class="st0" d="M10.7,11.1c-0.2,0-0.5-0.1-0.6-0.3L7.8,8.5C7.5,8.2,7.4,7.7,7.7,7.3C8,6.9,8.5,6.9,8.9,7.2
		C9,7.2,9,7.2,9.1,7.3l2.2,2.2c0.3,0.3,0.3,0.9,0,1.2C11.1,10.9,10.9,11,10.7,11.1z"/>
	<path class="st0" d="M3.1,20.4c-0.3,0-0.6-0.2-0.7-0.4c-0.2-0.4-0.1-0.9,0.3-1.2l7.6-4.4c0.4-0.2,0.9-0.1,1.2,0.3
		c0.2,0.4,0.1,0.9-0.3,1.2l-7.6,4.4C3.4,20.4,3.2,20.4,3.1,20.4z"/>
	<path class="st0" d="M6.3,18.6H6L3,17.8c-0.5-0.1-0.7-0.6-0.6-1.1C2.5,16.3,3,16,3.4,16.1l0,0l3.1,0.8c0.5,0.1,0.7,0.6,0.6,1
		c0,0,0,0,0,0C7,18.3,6.7,18.6,6.3,18.6z"/>
	<path class="st0" d="M5.5,21.6c-0.1,0-0.2,0-0.2,0c-0.5-0.1-0.7-0.6-0.6-1.1l0.8-3.1C5.6,17,6,16.8,6.5,16.9c0.5,0.1,0.7,0.6,0.6,1
		c0,0,0,0,0,0L6.3,21C6.2,21.4,5.9,21.6,5.5,21.6z"/>
	<path class="st0" d="M10.7,16c-0.5,0-0.8-0.5-0.8-0.9c0-0.2,0.1-0.5,0.3-0.6l7.6-4.4c0.4-0.2,1-0.1,1.2,0.3c0.2,0.4,0.1,1-0.3,1.2
		L11.1,16C11,16.1,10.9,16.1,10.7,16z"/>
	<path class="st0" d="M18.1,14.3c-0.1,0-0.2,0-0.2,0l-3.1-0.8c-0.5-0.1-0.7-0.6-0.6-1.1c0,0,0,0,0,0c0.1-0.5,0.6-0.8,1-0.7
		c0,0,0.1,0,0.1,0l3.1,0.8c0.5,0.1,0.8,0.5,0.7,1C19,14,18.6,14.3,18.1,14.3L18.1,14.3L18.1,14.3z"/>
	<path class="st0" d="M15.1,13.5h-0.2c-0.5-0.1-0.7-0.6-0.6-1.1c0,0,0,0,0,0L15,9.4c0.1-0.5,0.6-0.7,1.1-0.6
		c0.5,0.1,0.7,0.6,0.6,1.1l0,0l-0.8,3.1C15.8,13.3,15.4,13.5,15.1,13.5z"/>
	<path class="st0" d="M18.2,20.4c-0.2,0-0.3,0-0.4-0.1l-7.6-4.4c-0.4-0.2-0.6-0.8-0.3-1.2c0.2-0.4,0.8-0.5,1.2-0.3c0,0,0,0,0,0
		l7.6,4.4c0.4,0.2,0.6,0.7,0.3,1.2C18.9,20.3,18.6,20.4,18.2,20.4z"/>
	<path class="st0" d="M15.9,21.6c-0.4,0-0.7-0.3-0.8-0.6l-0.8-3.1c-0.1-0.5,0.2-0.9,0.6-1.1c0.5-0.1,0.9,0.2,1.1,0.6l0,0l0.8,3.1
		c0.1,0.5-0.2,0.9-0.6,1.1C16,21.6,15.9,21.6,15.9,21.6z"/>
	<path class="st0" d="M15.1,18.6c-0.4,0-0.7-0.3-0.8-0.6c-0.1-0.5,0.2-0.9,0.6-1.1l3.1-0.8c0.5-0.1,0.9,0.1,1.1,0.6c0,0,0,0,0,0
		c0.1,0.5-0.2,0.9-0.6,1.1l-3.1,0.8L15.1,18.6z"/>
	<path class="st0" d="M10.7,16c-0.2,0-0.3,0-0.4-0.1l-7.6-4.4c-0.4-0.2-0.6-0.8-0.3-1.2C2.5,10,3.1,9.8,3.5,10c0,0,0,0,0,0l7.6,4.4
		c0.4,0.2,0.6,0.8,0.3,1.2C11.3,15.9,11,16,10.7,16z"/>
	<path class="st0" d="M6.3,13.5c-0.4,0-0.7-0.3-0.8-0.6l-0.8-3C4.5,9.4,4.8,8.9,5.2,8.8c0.5-0.1,0.9,0.1,1.1,0.6c0,0,0,0,0,0
		l0.8,3.1c0.1,0.5-0.1,0.9-0.6,1.1c0,0,0,0,0,0L6.3,13.5z"/>
	<path class="st0" d="M3.3,14.3c-0.4,0-0.7-0.3-0.8-0.6c-0.1-0.5,0.1-0.9,0.6-1.1c0,0,0.1,0,0.1,0l3.1-0.8c0.5-0.1,0.9,0.2,1.1,0.6
		c0.1,0.5-0.1,0.9-0.6,1.1c0,0,0,0,0,0l-3.1,0.8C3.4,14.3,3.3,14.3,3.3,14.3z"/>
	<path class="st0" d="M205.2,11.1c-0.2,0-0.4-0.2-0.4-0.4V7c0-0.2,0.2-0.4,0.4-0.4c0.2,0,0.4,0.2,0.4,0.4v3.6
		C205.6,10.8,205.4,11,205.2,11.1C205.2,11,205.2,11.1,205.2,11.1z"/>
	<path class="st0" d="M204.3,10.4c-0.1,0-0.2,0-0.3-0.1c-0.1-0.1-0.1-0.4,0-0.5l0.9-0.9c0.1-0.1,0.4-0.1,0.5,0c0,0,0,0,0,0
		c0.1,0.1,0.1,0.3,0,0.5c0,0,0,0,0,0l-0.9,0.9C204.5,10.3,204.4,10.4,204.3,10.4z"/>
	<path class="st0" d="M206.1,10.4c-0.1,0-0.2,0-0.3-0.1l-0.9-0.9c-0.1-0.1-0.1-0.4,0-0.5c0.1-0.1,0.4-0.1,0.5,0c0,0,0,0,0,0l0.9,0.9
		c0.1,0.2,0.1,0.4,0,0.5C206.2,10.3,206.2,10.4,206.1,10.4L206.1,10.4z"/>
	<path class="st0" d="M205.2,7.4c-0.2,0-0.4-0.2-0.4-0.4c0,0,0,0,0,0V3.4c0-0.2,0.2-0.4,0.4-0.4c0.2,0,0.4,0.2,0.4,0.4V7
		C205.5,7.2,205.4,7.4,205.2,7.4C205.2,7.4,205.2,7.4,205.2,7.4z"/>
	<path class="st0" d="M205.2,5.3c-0.1,0-0.2,0-0.2-0.1c-0.1-0.1-0.1-0.4,0-0.5l0.9-0.9c0.1-0.1,0.4-0.1,0.5,0s0.1,0.4,0,0.5
		l-0.9,0.9C205.4,5.2,205.3,5.3,205.2,5.3z"/>
	<path class="st0" d="M205.2,5.3c-0.1,0-0.2,0-0.2-0.1L204,4.3c-0.1-0.1-0.1-0.4,0-0.5s0.4-0.1,0.5,0l0,0l0.9,0.9
		c0.1,0.1,0.1,0.3,0,0.5c0,0,0,0,0,0C205.4,5.2,205.3,5.3,205.2,5.3z"/>
	<path class="st0" d="M202.1,9.2c-0.1,0-0.3-0.1-0.3-0.2c-0.1-0.2,0-0.4,0.1-0.5l3.1-1.8c0.2-0.1,0.4,0,0.5,0.2c0,0.1,0,0.3-0.1,0.4
		l-3.1,1.8C202.2,9.2,202.1,9.2,202.1,9.2z"/>
	<path class="st0" d="M203.3,8.4L203.3,8.4l-1.2-0.3c-0.2,0-0.3-0.2-0.3-0.4c0,0,0,0,0,0c0.1-0.2,0.3-0.3,0.4-0.3l1.2,0.3
		c0.2,0.1,0.3,0.2,0.2,0.4c0,0,0,0,0,0C203.7,8.4,203.5,8.5,203.3,8.4z"/>
	<path class="st0" d="M203,9.7L203,9.7c-0.3-0.1-0.4-0.3-0.3-0.4L203,8c0-0.2,0.2-0.3,0.4-0.3c0,0,0,0,0,0c0.2,0.1,0.3,0.2,0.2,0.4
		c0,0,0,0,0,0l-0.3,1.2C203.3,9.6,203.2,9.7,203,9.7z"/>
	<path class="st0" d="M205.2,7.4c-0.1,0-0.2-0.1-0.3-0.2c-0.1-0.2,0-0.4,0.1-0.5c0,0,0,0,0,0l3.1-1.8c0.2-0.1,0.4,0,0.5,0.1
		c0.1,0.2,0,0.4-0.1,0.5c0,0,0,0,0,0l-3.1,1.8C205.3,7.4,205.2,7.4,205.2,7.4z"/>
	<path class="st0" d="M208.2,6.7L208.2,6.7l-1.3-0.3c-0.2-0.1-0.3-0.3-0.2-0.4c0-0.2,0.2-0.3,0.4-0.3c0,0,0,0,0,0l1.3,0.3
		c0.2,0.1,0.3,0.2,0.2,0.4C208.5,6.6,208.4,6.7,208.2,6.7z"/>
	<path class="st0" d="M207,6.3L207,6.3c-0.3-0.1-0.4-0.3-0.3-0.4l0.3-1.2c0.1-0.2,0.2-0.3,0.4-0.3c0.2,0.1,0.3,0.2,0.3,0.4l-0.3,1.2
		C207.3,6.2,207.1,6.3,207,6.3z"/>
	<path class="st0" d="M208.3,9.2c-0.1,0-0.1,0-0.2,0l-3.1-1.8c-0.2-0.1-0.2-0.3-0.1-0.5c0,0,0,0,0,0c0.1-0.2,0.3-0.2,0.5-0.1
		l3.1,1.8c0.2,0.1,0.2,0.3,0.1,0.5C208.5,9.2,208.4,9.2,208.3,9.2L208.3,9.2z"/>
	<path class="st0" d="M207.3,9.7c-0.2,0-0.3-0.1-0.3-0.3l-0.3-1.2c-0.1-0.2,0.1-0.4,0.3-0.4c0.2-0.1,0.4,0.1,0.4,0.3l0.3,1.2
		C207.7,9.4,207.6,9.6,207.3,9.7L207.3,9.7z"/>
	<path class="st0" d="M207,8.4c-0.2,0-0.3-0.1-0.3-0.3c0-0.2,0.1-0.4,0.2-0.4l1.3-0.3c0.2,0,0.4,0.1,0.4,0.3c0,0.2-0.1,0.4-0.2,0.4
		L207,8.4L207,8.4z"/>
	<path class="st0" d="M205.2,7.4c-0.1,0-0.1,0-0.2,0l-3.2-1.8c-0.2-0.1-0.3-0.3-0.2-0.5c0.1-0.2,0.3-0.3,0.5-0.2c0,0,0.1,0,0.1,0.1
		l3.1,1.8c0.2,0.1,0.2,0.3,0.1,0.5c0,0,0,0,0,0C205.3,7.3,205.3,7.3,205.2,7.4z"/>
	<path class="st0" d="M203.3,6.3c-0.2,0-0.3-0.1-0.3-0.3l-0.3-1.2c0-0.2,0.1-0.4,0.2-0.4c0.2,0,0.4,0.1,0.4,0.3l0.3,1.2
		c0.1,0.2,0,0.4-0.2,0.4C203.4,6.3,203.4,6.3,203.3,6.3L203.3,6.3z"/>
	<path class="st0" d="M202.1,6.7c-0.1,0-0.3-0.1-0.3-0.2c0-0.2,0.1-0.4,0.3-0.4c0,0,0,0,0,0l1.2-0.3c0.2-0.1,0.4,0,0.4,0.2
		c0,0,0,0,0,0c0.1,0.2,0,0.4-0.2,0.4c0,0,0,0,0,0l-1.2,0.3L202.1,6.7z"/>
	<polygon class="st0" points="35.3,26.5 37.2,26.5 37.2,22.3 44.8,22.3 44.8,20.6 37.2,20.6 37.2,17.7 45,17.7 45,16.1 35.3,16.1 	
		"/>
	<path class="st0" d="M53.2,16.1h-2.5l-5.5,10.4h2l1.2-2.2h7l1.2,2.2h2L53.2,16.1L53.2,16.1z M52.1,17.6l2.6,5h-5.4l2.6-5H52.1z"/>
	<polygon class="st0" points="64.6,25 64.4,25 59.8,16 57.8,16 63.2,26.5 65.7,26.5 71.3,16.1 69.2,16.1 	"/>
	<path class="st0" d="M83.6,16.3c-1.5-0.3-3-0.5-4.4-0.4c-1.5-0.1-3,0.1-4.5,0.4c-0.8,0.2-1.5,0.9-1.7,1.7c-0.2,1.1-0.3,2.2-0.2,3.3
		c-0.1,1.1,0,2.2,0.2,3.3c0.2,0.8,0.9,1.4,1.7,1.7c1.5,0.3,3,0.5,4.5,0.4c1.5,0.1,3-0.1,4.5-0.4c0.8-0.2,1.5-0.9,1.7-1.7
		c0.2-1.1,0.3-2.2,0.3-3.3c0.1-1.1,0-2.2-0.2-3.3C85.1,17.2,84.5,16.6,83.6,16.3 M83.2,24.5c-0.3,0.2-1.2,0.5-4,0.5
		c-2.8,0-3.8-0.3-4-0.5c-0.3-0.2-0.6-0.9-0.6-3.2s0.3-3.1,0.6-3.2c0.2-0.2,1.2-0.5,4-0.5c2.9,0,3.8,0.3,4,0.5
		c0.3,0.2,0.6,0.9,0.6,3.2S83.5,24.4,83.2,24.5"/>
	<path class="st0" d="M100.4,21.4c0.3-0.6,0.5-1.3,0.5-2c0-0.9-0.2-1.7-0.7-2.4c-0.5-0.6-1.3-1-2.1-0.9h-9.2v10.4h1.8v-3.7h6.1
		l2.2,3.7h1.8l-2.4-3.9C99.3,22.5,100,22,100.4,21.4 M90.6,17.7h6.8c0.4,0,0.8,0.1,1.1,0.3c0.4,0.4,0.6,1,0.5,1.5
		c0.1,0.6-0.1,1.1-0.5,1.5c-0.3,0.2-0.7,0.3-1.1,0.3h-6.8L90.6,17.7z"/>
	<path class="st0" d="M231.1,21.4c0.3-0.6,0.5-1.3,0.4-2c0-0.9-0.2-1.7-0.7-2.4c-0.5-0.6-1.3-1-2.1-0.9h-9.2v10.4h1.8v-3.7h6.1
		l2.2,3.7h2.1l-2.5-3.8C230.1,22.5,230.7,22.1,231.1,21.4 M221.3,17.7h6.8c0.4,0,0.8,0.1,1.1,0.3c0.4,0.4,0.6,1,0.5,1.5
		c0.1,0.6-0.1,1.1-0.5,1.5c-0.3,0.2-0.7,0.3-1.1,0.3h-6.8V17.7z"/>
	<rect x="104.1" y="16.1" class="st0" width="1.8" height="10.4"/>
	<polygon class="st0" points="108.6,17.7 113.6,17.7 113.6,26.5 115.4,26.5 115.4,17.7 120.4,17.7 120.4,16.1 108.6,16.1 	"/>
	<polygon class="st0" points="164.2,24.3 159.1,16.1 156.1,16.1 156.1,26.5 157.9,26.5 157.9,17.7 158,17.7 163.6,26.4 163.7,26.5 
		164.8,26.5 170.4,17.7 170.5,17.7 170.5,26.5 172.3,26.5 172.3,16.1 169.4,16.1 	"/>
	<path class="st0" d="M186.2,16.3c-1.5-0.3-3-0.5-4.4-0.4c-1.5-0.1-3,0.1-4.5,0.4c-0.8,0.2-1.5,0.9-1.7,1.7
		c-0.2,1.1-0.3,2.2-0.2,3.3c0,1.1,0,2.2,0.2,3.3c0.2,0.8,0.9,1.4,1.7,1.7c3,0.5,6,0.5,8.9,0c0.8-0.2,1.5-0.9,1.7-1.7
		c0.2-1.1,0.3-2.2,0.2-3.3c0.1-1.1,0-2.2-0.2-3.3C187.6,17.2,187,16.6,186.2,16.3 M185.7,24.5c-0.3,0.2-1.2,0.5-4,0.5
		c-2.8,0-3.7-0.3-4-0.5c-0.3-0.2-0.6-0.9-0.6-3.2s0.3-3.1,0.6-3.2c0.3-0.2,1.2-0.5,4-0.5c2.8,0,3.8,0.3,4,0.5
		c0.3,0.2,0.6,0.9,0.6,3.2S186,24.4,185.7,24.5"/>
	<polygon class="st0" points="189.9,17.7 194.9,17.7 194.9,26.5 196.7,26.5 196.7,17.7 201.7,17.7 201.7,16.1 189.9,16.1 	"/>
	<path class="st0" d="M214.5,16.3c-1.5-0.3-3-0.5-4.4-0.4c-1.5-0.1-3,0.1-4.5,0.4c-0.8,0.2-1.5,0.9-1.7,1.7
		c-0.2,1.1-0.3,2.2-0.2,3.3c0,1.1,0,2.2,0.2,3.3c0.2,0.8,0.9,1.4,1.7,1.7c3,0.5,6,0.5,8.9,0c0.8-0.2,1.5-0.9,1.7-1.7
		c0.2-1.1,0.3-2.2,0.2-3.3c0.1-1.1,0-2.2-0.2-3.3C216,17.2,215.4,16.6,214.5,16.3 M214.1,24.5c-0.3,0.2-1.2,0.5-4,0.5
		s-3.7-0.3-4-0.5c-0.3-0.2-0.6-0.9-0.6-3.2s0.3-3.1,0.6-3.2c0.3-0.2,1.2-0.5,4-0.5s3.8,0.3,4,0.5c0.3,0.2,0.6,0.9,0.6,3.2
		S214.4,24.4,214.1,24.5"/>
	<path class="st0" d="M244.8,21c-1.5-0.4-3-0.5-4.6-0.4c-1.1,0.1-2.2,0-3.2-0.3c-0.5-0.2-0.8-0.8-0.7-1.3c0-0.7,0.4-1.1,1.3-1.3
		c0.3,0,1.2,0,2.6,0c1-0.1,2.1,0,3.1,0.3c0.4,0.2,0.6,0.7,0.6,1.5v0.2h1.8v-0.2c0.1-1-0.2-2-0.9-2.7c-1.4-0.7-3-1-4.6-0.8
		c-1.5-0.1-3.1,0.1-4.6,0.5c-0.9,0.5-1.3,1.5-1.2,2.5c-0.1,0.9,0.3,1.8,1,2.4c1.5,0.7,3.1,1,4.8,0.9c1.1-0.1,2.3,0,3.4,0.2
		c0.4,0.1,0.5,0.5,0.5,1.1c0.1,0.5-0.2,1-0.7,1.1c-1.2,0.2-2.4,0.3-3.5,0.3c-1.1,0.1-2.3,0-3.4-0.3c-0.4-0.2-0.6-0.8-0.6-1.7v-0.2
		h-1.8v0.2c0,1.5,0.3,2.4,0.9,2.8c1.5,0.7,3.2,1,4.9,0.9c1.5,0.1,3.1-0.1,4.6-0.5c1-0.4,1.6-1.5,1.5-2.6c0-1.4-0.4-2.3-1.2-2.6"/>
	<path class="st0" d="M138.1,36.5c-0.1,0-0.1,0-0.2,0c-10.3-7.9-10-22.7-10-22.8l0,0c0-0.5,0.2-0.9,0.6-1.2c2.8-2.2,8.2-2.3,9.2-2.3
		h0.7c1,0,6.4,0.1,9.2,2.3c0.4,0.3,0.6,0.7,0.6,1.2l0,0c0,0.2,0.3,14.9-10,22.8C138.2,36.5,138.2,36.5,138.1,36.5H138H138.1z
		 M137.8,8.7c-1.5,0-6.9,0.2-10,2.6c-0.7,0.5-1.1,1.3-1.1,2.2l0,0c0,3.1,0.4,6.2,1.2,9.2c1.4,5.9,4.6,11.1,9.3,14.9
		c0.3,0.2,0.6,0.3,1,0.3h0.1c0.4,0,0.7-0.1,1-0.3c4.7-3.8,7.9-9.1,9.3-14.9c0.8-3,1.2-6.1,1.2-9.2l0,0c0-0.9-0.4-1.7-1.1-2.2
		c-3.1-2.4-8.5-2.6-10-2.6L137.8,8.7z"/>
	<path class="st0" d="M133.5,12.9h9.1v3.9c0,0-0.7-0.4-1.1-0.6c-1.2-0.1-2.5-0.2-3.7-0.1v2.6h4.1v3.8c0,0-0.4-0.8-0.9-0.8h-3.1v10.7
		l-3.2-3.1c0.3-0.1,0.4-0.4,0.4-0.6c0-0.5-1-13-1-14.1c0-0.6-0.2-1.1-0.6-1.5"/>
</g>
</svg>
